[{
		"logo": "https://upload.wikimedia.org/wikipedia/en/thumb/d/d3/ICC_Cricket_World_Cup_2019_logo.svg/1200px-ICC_Cricket_World_Cup_2019_logo.svg.png",
		"name": "ICC World CUP Warm up Matches",
		"sname": "Trending Now",
		"ssname": "Works Only In India",
		"streaming": [{
			"age": "Mozilla/5.0 (Windows NT 6.1; Win64; x64) AppleWebKit/JioTV/537.36 (KHTML, like Gecko) Chrome/63.0.3239.84 Safari/537.36",
			"cardl": 300,
			"cardw": 350,
			"category": 5,
			"channel_id": 155,
			"drm": false,
			"hd": false,
			"icon": "https://img1.hotstarext.com/image/upload/f_auto,t_hcdl/sources/r1/cms/prod/4600/464600-h",
			"imgh": 125,
			"imgw": 96,
			"isHD": false,
			"language": 1,
			"lic": false,
			"link": "https://www.oreotv.website/live/hot/hotipl.m3u8?ma=01&lan=eng",
			"linkp": "a",
			"live": false,
			"name": "ICC World CUP Live M1",
			"tok": "widevine",
			"tokj": "hello",
			"trigger": false,
			"z": false,
			"zee": false
		}, {
			"age": "Mozilla/5.0 (Windows NT 6.1; Win64; x64) AppleWebKit/JioTV/537.36 (KHTML, like Gecko) Chrome/63.0.3239.84 Safari/537.36",
			"cardl": 300,
			"cardw": 350,
			"category": 12,
			"channel_id": 258,
			"drm": false,
			"hd": false,
			"icon": "https://img1.hotstarext.com/image/upload/f_auto,t_hcdl/sources/r1/cms/prod/4597/464597-h",
			"imgh": 125,
			"imgw": 96,
			"isHD": true,
			"language": 1,
			"lic": false,
			"link": "https://www.oreotv.website/live/hot/hotipl.m3u8?ma=02&lan=eng",
			"linkp": "a",
			"live": false,
			"name": "ICC World CUP Live M2",
			"tok": "widevine",
			"tokj": "thoptv",
			"trigger": false,
			"z": false,
			"zee": false
		}],
		"title": "Welcome to array 2"
	}, {
		"logo": "https://upload.wikimedia.org/wikipedia/en/thumb/d/d3/ICC_Cricket_World_Cup_2019_logo.svg/1200px-ICC_Cricket_World_Cup_2019_logo.svg.png",
		"name": "ICC Match 1 LIVE ",
		"sname": "All Languages",
		"ssname": "Works Only In India",
		"streaming": [ {
				"age": "Mozilla/5.0 (Windows NT 6.1; Win64; x64) AppleWebKit/537.36 (KHTML, like Gecko) Chrome/62.0.3202.94 Safari/537.36",
				"cardl": 300,
				"cardw": 450,
				"category": 5,
				"channel_id": 155,
				"drm": false,
				"hd": false,
				"icon": "https://i2.wp.com/crickettimes.com/wp-content/uploads/2019/05/ICC-World-Cup-Warm-Up-matches.jpg",
				"imgh": 219,
				"imgw": 450,
				"isHD": false,
				"language": 1,
				"lic": false,
				"link": "https://www.oreotv.website/live/hot/hotipl.m3u8?ma=02&lan=eng",
				"linkp": "a",
				"live": true,
				
				"name": " English",
				"tok": "widevine",
				"tokj": "hello",
				"trigger": false,
				"z": false,
				"zee": false
			}
		],
		"title": "Welcome to array 2"
	}, {
		"logo": "https://upload.wikimedia.org/wikipedia/en/thumb/d/d3/ICC_Cricket_World_Cup_2019_logo.svg/1200px-ICC_Cricket_World_Cup_2019_logo.svg.png",
		"name": "ICC M 2 LIVE ",
		"sname": "All Languages",
		"ssname": "Works Only In India",
		"streaming": [{
				"age": "Mozilla/5.0 (Windows NT 6.1; Win64; x64) AppleWebKit/537.36 (KHTML, like Gecko) Chrome/62.0.3202.94 Safari/537.36",
				"cardl": 300,
				"cardw": 450,
				"category": 5,
				"channel_id": 155,
				"drm": false,
				"hd": false,
				"icon": "https://i2.wp.com/crickettimes.com/wp-content/uploads/2019/05/ICC-World-Cup-Warm-Up-matches.jpg",
				"imgh": 219,
				"imgw": 450,
				"isHD": false,
				"language": 1,
				"lic": false,
				"link": "https://www.oreotv.website/live/hot/hotipl.m3u8?ma=01&lan=hin",
					"linkp": "a",
				"live": true,
				"name": "HINDI ",
				"tok": "widevine",
				"tokj": "hello",
				"trigger": false,
				"z": false,
				"zee": false
			}, {
				"age": "Mozilla/5.0 (Windows NT 6.1; Win64; x64) AppleWebKit/537.36 (KHTML, like Gecko) Chrome/62.0.3202.94 Safari/537.36",
				"cardl": 300,
				"cardw": 450,
				"category": 5,
				"channel_id": 155,
				"drm": false,
				"hd": false,
				"icon": "https://i2.wp.com/crickettimes.com/wp-content/uploads/2019/05/ICC-World-Cup-Warm-Up-matches.jpg",
				"imgh": 219,
				"imgw": 450,
				"isHD": false,
				"language": 1,
				"lic": false,
				"link": "https://www.oreotv.website/live/hot/hotipl.m3u8?ma=01&lan=eng",
				"linkp": "a",
				"live": true,
				
				"name": " English",
				"tok": "widevine",
				"tokj": "hello",
				"trigger": false,
				"z": false,
				"zee": false
			}, {
				"age": "Mozilla/5.0 (Windows NT 6.1; Win64; x64) AppleWebKit/537.36 (KHTML, like Gecko) Chrome/62.0.3202.94 Safari/537.36",
				"cardl": 300,
				"cardw": 450,
				"category": 5,
				"channel_id": 155,
				"drm": false,
				"hd": false,
				"icon": "https://i2.wp.com/crickettimes.com/wp-content/uploads/2019/05/ICC-World-Cup-Warm-Up-matches.jpg",
				"imgh": 219,
				"imgw": 450,
				"isHD": false,
				"language": 1,
				"lic": false,
				"link": "https://www.oreotv.website/live/hot/hotipl.m3u8?ma=01&lan=tel",
				"linkp": "a",
				"live": true,
				"name": "Telugu",
				"tok": "widevine",
				"tokj": "hello",
				"trigger": false,
				"z": false,
				"zee": false
			}, {
				"age": "Mozilla/5.0 (Windows NT 6.1; Win64; x64) AppleWebKit/537.36 (KHTML, like Gecko) Chrome/62.0.3202.94 Safari/537.36",
				"cardl": 300,
				"cardw": 450,
				"category": 5,
				"channel_id": 155,
				"drm": false,
				"hd": false,
				"icon": "https://i2.wp.com/crickettimes.com/wp-content/uploads/2019/05/ICC-World-Cup-Warm-Up-matches.jpg",
				"imgh": 219,
				"imgw": 450,
				"isHD": false,
				"language": 1,
				"lic": false,
				"link": "https://www.oreotv.website/live/hot/hotipl.m3u8?ma=01&lan=tam",
				"linkp": "a",
				"live": true,
				"name": "Tamil",
				"tok": "widevine",
				"tokj": "hello",
				"trigger": false,
				"z": false,
				"zee": false
			}, {
				"age": "Mozilla/5.0 (Windows NT 6.1; Win64; x64) AppleWebKit/537.36 (KHTML, like Gecko) Chrome/62.0.3202.94 Safari/537.36",
				"cardl": 300,
				"cardw": 450,
				"category": 5,
				"channel_id": 155,
				"drm": false,
				"hd": false,
				"icon": "https://i2.wp.com/crickettimes.com/wp-content/uploads/2019/05/ICC-World-Cup-Warm-Up-matches.jpg",
				"imgh": 219,
				"imgw": 450,
				"isHD": false,
				"language": 1,
				"lic": false,
				"link": "https://www.oreotv.website/live/hot/hotipl.m3u8?ma=01&lan=kan",
				"linkp": "a",
				"live": true,
				"name": " Kanada",
				"tok": "widevine",
				"tokj": "hello",
				"trigger": false,
				"z": false,
				"zee": false
			}, {
				"age": "Mozilla/5.0 (Windows NT 6.1; Win64; x64) AppleWebKit/537.36 (KHTML, like Gecko) Chrome/62.0.3202.94 Safari/537.36",
				"cardl": 300,
				"cardw": 450,
				"category": 5,
				"channel_id": 155,
				"drm": false,
				"hd": false,
				"icon": "https://i2.wp.com/crickettimes.com/wp-content/uploads/2019/05/ICC-World-Cup-Warm-Up-matches.jpg",
				"imgh": 219,
				"imgw": 450,
				"isHD": false,
				"language": 1,
				"lic": false,
				"link": "https://www.oreotv.website/live/hot/hotipl.m3u8?ma=01&lan=ben",
				"linkp": "a",
				"live": true,
				"name": "Bengali",
				"tok": "widevine",
				"tokj": "hello",
				"trigger": false,
				"z": false,
				"zee": false
			},


			{
				"age": "Mozilla/5.0 (Windows NT 6.1; Win64; x64) AppleWebKit/537.36 (KHTML, like Gecko) Chrome/62.0.3202.94 Safari/537.36",
				"cardl": 300,
				"cardw": 450,
				"category": 5,
				"channel_id": 155,
				"drm": false,
				"hd": false,
				"icon": "https://i2.wp.com/crickettimes.com/wp-content/uploads/2019/05/ICC-World-Cup-Warm-Up-matches.jpg?width=390&height=219",
				"imgh": 219,
				"imgw": 450,
				"isHD": false,
				"language": 1,
				"lic": false,
				"link": "https://www.oreotv.website/live/hot/hotipl.m3u8?ma=01&lan=dug",
				"linkp": "a",
				"live": true,
				"name": "Dug",
				"tok": "widevine",
				"tokj": "hello",
				"trigger": false,
				"z": false,
				"zee": false
			}
		],
		"title": "Welcome to array 2"
	}
]