[null,null,null,
    {
        "name": "Telugu Shows",
        "logo": "https://seeklogo.com/images/H/hotstar-logo-6A3E165CC3-seeklogo.com.png",
        "sname": "Telugu",
        "ssname": "Works Only In India",
        "streaming":[
    {
        "direct": false,
        "drm": false,
        "name": "Karthika Deepam",
        "icon": "https://img1.hotstar.com/image/upload/f_auto,t_web_vl_1x/.jpg",
        "lice": "abc",
        "link": "15457"
    },
    {
        "direct": false,
        "drm": false,
        "name": "Mahabharatham",
        "icon": "https://img1.hotstar.com/image/upload/f_auto,t_web_vl_1x/sources/r1/cms/prod/9822/309822-v.jpg",
        "lice": "abc",
        "link": "4122"
    },
    {
        "direct": false,
        "drm": false,
        "name": "Ave Kallu",
        "icon": "https://img1.hotstar.com/image/upload/f_auto,t_web_vl_1x/sources/r1/cms/prod/9278/119278-v.jpg",
        "lice": "abc",
        "link": "1260002056"
    },
    {
        "direct": false,
        "drm": false,
        "name": "Mounaraagam",
        "icon": "https://img1.hotstar.com/image/upload/f_auto,t_web_vl_1x/sources/r1/cms/prod/2708/12708-v.jpg",
        "lice": "abc",
        "link": "18383"
    },
    {
        "direct": false,
        "drm": false,
        "name": "Agni Sakshi",
        "icon": "https://img1.hotstar.com/image/upload/f_auto,t_web_vl_1x/.jpg",
        "lice": "abc",
        "link": "15876"
    },
    {
        "direct": false,
        "drm": false,
        "name": "Bigg Boss",
        "icon": "https://img1.hotstar.com/image/upload/f_auto,t_web_vl_1x/sources/r1/cms/prod/9871/19871-v.jpg",
        "lice": "abc",
        "link": "14714"
    },
    {
        "direct": false,
        "drm": false,
        "name": "Kathalo Rajakumari",
        "icon": "https://img1.hotstar.com/image/upload/f_auto,t_web_vl_1x/.jpg",
        "lice": "abc",
        "link": "16515"
    },
    {
        "direct": false,
        "drm": false,
        "name": "Kumkuma Puvvu",
        "icon": "https://img1.hotstar.com/image/upload/f_auto,t_web_vl_1x/sources/r1/cms/prod/5312/465312-v.jpg",
        "lice": "abc",
        "link": "9901"
    },
    {
        "direct": false,
        "drm": false,
        "name": "Janaki Ramudu",
        "icon": "https://img1.hotstar.com/image/upload/f_auto,t_web_vl_1x/.jpg",
        "lice": "abc",
        "link": "7073"
    },
    {
        "direct": false,
        "drm": false,
        "name": "Savitramma",
        "icon": "https://img1.hotstar.com/image/upload/f_auto,t_web_vl_1x/sources/r1/cms/prod/3762/313762-v.jpg",
        "lice": "abc",
        "link": "1260003836"
    },
    {
        "direct": false,
        "drm": false,
        "name": "Parivaar League",
        "icon": "https://img1.hotstar.com/image/upload/f_auto,t_web_vl_1x/sources/r1/cms/prod/9774/349774-v.jpg",
        "lice": "abc",
        "link": "1260004278"
    },
    {
        "direct": false,
        "drm": false,
        "name": "Kanulu Moosina Neevaye",
        "icon": "https://img1.hotstar.com/image/upload/f_auto,t_web_vl_1x/sources/r1/cms/prod/530/290530-v.jpg",
        "lice": "abc",
        "link": "1260003649"
    },
    {
        "direct": false,
        "drm": false,
        "name": "Koilamma",
        "icon": "https://img1.hotstar.com/image/upload/f_auto,t_web_vl_1x/sources/r1/cms/prod/9305/89305-v.jpg",
        "lice": "abc",
        "link": "10752"
    },
    {
        "direct": false,
        "drm": false,
        "name": "Vadinamma",
        "icon": "https://img1.hotstar.com/image/upload/f_auto,t_web_vl_1x/sources/r1/cms/prod/4714/414714-v.jpg",
        "lice": "abc",
        "link": "1260004807"
    },
    {
        "direct": false,
        "drm": false,
        "name": "Manasuna Manasai",
        "icon": "https://img1.hotstar.com/image/upload/f_auto,t_web_vl_1x/sources/r1/cms/prod/6969/156969-v.jpg",
        "lice": "abc",
        "link": "1260002554"
    },
    {
        "direct": false,
        "drm": false,
        "name": "Kante Koothurne Kanali",
        "icon": "https://img1.hotstar.com/image/upload/f_auto,t_web_vl_1x/.jpg",
        "lice": "abc",
        "link": "17745"
    },
    {
        "direct": false,
        "drm": false,
        "name": "Eetaram Illalu",
        "icon": "https://img1.hotstar.com/image/upload/f_auto,t_web_vl_1x/.jpg",
        "lice": "abc",
        "link": "4116"
    },
    {
        "direct": false,
        "drm": false,
        "name": "Jyothi",
        "icon": "https://img1.hotstar.com/image/upload/f_auto,t_web_vl_1x/sources/r1/cms/prod/6656/76656-v.jpg",
        "lice": "abc",
        "link": "1260001276"
    },
    {
        "direct": false,
        "drm": false,
        "name": "Krishnaveni",
        "icon": "https://img1.hotstar.com/image/upload/f_auto,t_web_vl_1x/sources/r1/cms/prod/8399/108399-v.jpg",
        "lice": "abc",
        "link": "1260001866"
    },
    {
        "direct": false,
        "drm": false,
        "name": "Siri Siri Muvvalu",
        "icon": "https://img1.hotstar.com/image/upload/f_auto,t_web_vl_1x/sources/r1/cms/prod/4735/234735-v.jpg",
        "lice": "abc",
        "link": "1260003265"
    },
    {
        "direct": false,
        "drm": false,
        "name": "Lakshmi Kalyanam",
        "icon": "https://img1.hotstar.com/image/upload/f_auto,t_web_vl_1x/.jpg",
        "lice": "abc",
        "link": "11722"
    },
    {
        "direct": false,
        "drm": false,
        "name": "Geetha Govindam",
        "icon": "https://img1.hotstar.com/image/upload/f_auto,t_web_vl_1x/sources/r1/cms/prod/7875/47875-v.jpg",
        "lice": "abc",
        "link": "1260000824"
    },
    {
        "direct": false,
        "drm": false,
        "name": "Arjun",
        "icon": "https://img1.hotstar.com/image/upload/f_auto,t_web_vl_1x/.jpg",
        "lice": "abc",
        "link": "12719"
    },
    {
        "direct": false,
        "drm": false,
        "name": "Pellante",
        "icon": "https://img1.hotstar.com/image/upload/f_auto,t_web_vl_1x/.jpg",
        "lice": "abc",
        "link": "4125"
    },
    {
        "direct": false,
        "drm": false,
        "name": "Super Singer",
        "icon": "https://img1.hotstar.com/image/upload/f_auto,t_web_vl_1x/sources/r1/cms/prod/6862/336862-v.jpg",
        "lice": "abc",
        "link": "1260004091"
    },
    {
        "direct": false,
        "drm": false,
        "name": "Mounageetham",
        "icon": "https://img1.hotstar.com/image/upload/f_auto,t_web_vl_1x/.jpg",
        "lice": "abc",
        "link": "4123"
    },
    {
        "direct": false,
        "drm": false,
        "name": "Sasirekha Parinayam",
        "icon": "https://img1.hotstar.com/image/upload/f_auto,t_web_vl_1x/.jpg",
        "lice": "abc",
        "link": "4102"
    },
    {
        "direct": false,
        "drm": false,
        "name": "Bhale Chance Le",
        "icon": "https://img1.hotstar.com/image/upload/f_auto,t_web_vl_1x/sources/r1/cms/prod/8848/358848-v.jpg",
        "lice": "abc",
        "link": "11118"
    },
    {
        "direct": false,
        "drm": false,
        "name": "RadhaKrishna",
        "icon": "https://img1.hotstar.com/image/upload/f_auto,t_web_vl_1x/sources/r1/cms/prod/4609/214609-v.jpg",
        "lice": "abc",
        "link": "1260003097"
    },
    {
        "direct": false,
        "drm": false,
        "name": "Ye Maaya Chesave",
        "icon": "https://img1.hotstar.com/image/upload/f_auto,t_web_vl_1x/.jpg",
        "lice": "abc",
        "link": "10274"
    },
    {
        "direct": false,
        "drm": false,
        "name": "Idi Katha Kadu",
        "icon": "https://img1.hotstar.com/image/upload/f_auto,t_web_vl_1x/.jpg",
        "lice": "abc",
        "link": "9822"
    },
    {
        "direct": false,
        "drm": false,
        "name": "Sixth Sense",
        "icon": "https://img1.hotstar.com/image/upload/f_auto,t_web_vl_1x/sources/r1/cms/prod/8444/168444-v.jpg",
        "lice": "abc",
        "link": "17018"
    },
    {
        "direct": false,
        "drm": false,
        "name": "Kodala Koduku",
        "icon": "https://img1.hotstar.com/image/upload/f_auto,t_web_vl_1x/.jpg",
        "lice": "abc",
        "link": "4120"
    },
    {
        "direct": false,
        "drm": false,
        "name": "Ashta Chemma",
        "icon": "https://img1.hotstar.com/image/upload/f_auto,t_web_vl_1x/.jpg",
        "lice": "abc",
        "link": "4104"
    },
    {
        "direct": false,
        "drm": false,
        "name": "Hara Hara Mahadeva",
        "icon": "https://img1.hotstar.com/image/upload/f_auto,t_web_vl_1x/.jpg",
        "lice": "abc",
        "link": "4118"
    },
    {
        "direct": false,
        "drm": false,
        "name": "Pellichoopulu",
        "icon": "https://img1.hotstar.com/image/upload/f_auto,t_web_vl_1x/sources/r1/cms/prod/7651/37651-v.jpg",
        "lice": "abc",
        "link": "1260000620"
    },
    {
        "direct": false,
        "drm": false,
        "name": "Super Singer – 2015",
        "icon": "https://img1.hotstar.com/image/upload/f_auto,t_web_vl_1x/.jpg",
        "lice": "abc",
        "link": "5440"
    },
    {
        "direct": false,
        "drm": false,
        "name": "Malleeswari",
        "icon": "https://img1.hotstar.com/image/upload/f_auto,t_web_vl_1x/.jpg",
        "lice": "abc",
        "link": "12405"
    },
    {
        "direct": false,
        "drm": false,
        "name": "Chandra Nandini",
        "icon": "https://img1.hotstar.com/image/upload/f_auto,t_web_vl_1x/.jpg",
        "lice": "abc",
        "link": "15275"
    },
    {
        "direct": false,
        "drm": false,
        "name": "Prema Yuddam",
        "icon": "https://img1.hotstar.com/image/upload/f_auto,t_web_vl_1x/.jpg",
        "lice": "abc",
        "link": "10318"
    },
    {
        "direct": false,
        "drm": false,
        "name": "Naa Pellam Rajanikanth",
        "icon": "https://img1.hotstar.com/image/upload/f_auto,t_web_vl_1x/.jpg",
        "lice": "abc",
        "link": "12714"
    },
    {
        "direct": false,
        "drm": false,
        "name": "Super Cops",
        "icon": "https://img1.hotstar.com/image/upload/f_auto,t_web_vl_1x/.jpg",
        "lice": "abc",
        "link": "14734"
    },
    {
        "direct": false,
        "drm": false,
        "name": "Radha Madhu",
        "icon": "https://img1.hotstar.com/image/upload/f_auto,t_web_vl_1x/.jpg",
        "lice": "abc",
        "link": "15270"
    },
    {
        "direct": false,
        "drm": false,
        "name": "Om Namah Shivaya",
        "icon": "https://img1.hotstar.com/image/upload/f_auto,t_web_vl_1x/.jpg",
        "lice": "abc",
        "link": "10830"
    },
    {
        "direct": false,
        "drm": false,
        "name": "Raashi Phalalu",
        "icon": "https://img1.hotstar.com/image/upload/f_auto,t_web_vl_1x/.jpg",
        "lice": "abc",
        "link": "9789"
    },
    {
        "direct": false,
        "drm": false,
        "name": "Shambhavi",
        "icon": "https://img1.hotstar.com/image/upload/f_auto,t_web_vl_1x/.jpg",
        "lice": "abc",
        "link": "17747"
    },
    {
        "direct": false,
        "drm": false,
        "name": "Love",
        "icon": "https://img1.hotstar.com/image/upload/f_auto,t_web_vl_1x/.jpg",
        "lice": "abc",
        "link": "15882"
    },
    {
        "direct": false,
        "drm": false,
        "name": "Raasi Phalalu",
        "icon": "https://img1.hotstar.com/image/upload/f_auto,t_web_vl_1x/.jpg",
        "lice": "abc",
        "link": "13495"
    },
    {
        "direct": false,
        "drm": false,
        "name": "Kaalabhairava Rahasyam",
        "icon": "https://img1.hotstar.com/image/upload/f_auto,t_web_vl_1x/.jpg",
        "lice": "abc",
        "link": "18289"
    },
    {
        "direct": false,
        "drm": false,
        "name": "Bharya",
        "icon": "https://img1.hotstar.com/image/upload/f_auto,t_web_vl_1x/.jpg",
        "lice": "abc",
        "link": "16850"
    },
    {
        "direct": false,
        "drm": false,
        "name": "Srinivasa Kalyanam",
        "icon": "https://img1.hotstar.com/image/upload/f_auto,t_web_vl_1x/.jpg",
        "lice": "abc",
        "link": "4114"
    },
    {
        "direct": false,
        "drm": false,
        "name": "Ugadi Husharu",
        "icon": "https://img1.hotstar.com/image/upload/f_auto,t_web_vl_1x/sources/r1/cms/prod/2043/362043-v.jpg",
        "lice": "abc",
        "link": "1260004343"
    },
    {
        "direct": false,
        "drm": false,
        "name": "Kongumudi",
        "icon": "https://img1.hotstar.com/image/upload/f_auto,t_web_vl_1x/.jpg",
        "lice": "abc",
        "link": "12340"
    },
    {
        "direct": false,
        "drm": false,
        "name": "Samsaram Oka Chadarangam",
        "icon": "https://img1.hotstar.com/image/upload/f_auto,t_web_vl_1x/.jpg",
        "lice": "abc",
        "link": "7014"
    },
    {
        "direct": false,
        "drm": false,
        "name": "Sundarakanda",
        "icon": "https://img1.hotstar.com/image/upload/f_auto,t_web_vl_1x/.jpg",
        "lice": "abc",
        "link": "15279"
    },
    {
        "direct": false,
        "drm": false,
        "name": "Tulasidalam",
        "icon": "https://img1.hotstar.com/image/upload/f_auto,t_web_vl_1x/.jpg",
        "lice": "abc",
        "link": "15268"
    },
    {
        "direct": false,
        "drm": false,
        "name": "Maa Parivaar Awards",
        "icon": "https://img1.hotstar.com/image/upload/f_auto,t_web_vl_1x/sources/r1/cms/prod/4220/4220-v.jpg",
        "lice": "abc",
        "link": "7403"
    },
    {
        "direct": false,
        "drm": false,
        "name": "Subrahmanya Charitham",
        "icon": "https://img1.hotstar.com/image/upload/f_auto,t_web_vl_1x/.jpg",
        "lice": "abc",
        "link": "16675"
    },
    {
        "direct": false,
        "drm": false,
        "name": "Neethone Dance",
        "icon": "https://img1.hotstar.com/image/upload/f_auto,t_web_vl_1x/.jpg",
        "lice": "abc",
        "link": "15319"
    },
    {
        "direct": false,
        "drm": false,
        "name": "Seethamaalakshmi",
        "icon": "https://img1.hotstar.com/image/upload/f_auto,t_web_vl_1x/.jpg",
        "lice": "abc",
        "link": "4112"
    },
    {
        "direct": false,
        "drm": false,
        "name": "Chandrakantha",
        "icon": "https://img1.hotstar.com/image/upload/f_auto,t_web_vl_1x/.jpg",
        "lice": "abc",
        "link": "13674"
    },
    {
        "direct": false,
        "drm": false,
        "name": "Uyyala Jampala",
        "icon": "https://img1.hotstar.com/image/upload/f_auto,t_web_vl_1x/.jpg",
        "lice": "abc",
        "link": "14415"
    },
    {
        "direct": false,
        "drm": false,
        "name": "Pavitra Bandham",
        "icon": "https://img1.hotstar.com/image/upload/f_auto,t_web_vl_1x/.jpg",
        "lice": "abc",
        "link": "16155"
    },
    {
        "direct": false,
        "drm": false,
        "name": "Ok Jaanu",
        "icon": "https://img1.hotstar.com/image/upload/f_auto,t_web_vl_1x/.jpg",
        "lice": "abc",
        "link": "14222"
    },
    {
        "direct": false,
        "drm": false,
        "name": "Raja Rani",
        "icon": "https://img1.hotstar.com/image/upload/f_auto,t_web_vl_1x/.jpg",
        "lice": "abc",
        "link": "9393"
    },
    {
        "direct": false,
        "drm": false,
        "name": "Cinemaa Awards",
        "icon": "https://img1.hotstar.com/image/upload/f_auto,t_web_vl_1x/.jpg",
        "lice": "abc",
        "link": "5259"
    },
    {
        "direct": false,
        "drm": false,
        "name": "Yuva",
        "icon": "https://img1.hotstar.com/image/upload/f_auto,t_web_vl_1x/.jpg",
        "lice": "abc",
        "link": "12716"
    },
    {
        "direct": false,
        "drm": false,
        "name": "Ramulamma",
        "icon": "https://img1.hotstar.com/image/upload/f_auto,t_web_vl_1x/.jpg",
        "lice": "abc",
        "link": "4108"
    },
    {
        "direct": false,
        "drm": false,
        "name": "Janatha Garage Specials",
        "icon": "https://img1.hotstar.com/image/upload/f_auto,t_web_vl_1x/.jpg",
        "lice": "abc",
        "link": "10408"
    },
    {
        "direct": false,
        "drm": false,
        "name": "Super Sankranthi",
        "icon": "https://img1.hotstar.com/image/upload/f_auto,t_web_vl_1x/.jpg",
        "lice": "abc",
        "link": "16380"
    },
    {
        "direct": false,
        "drm": false,
        "name": "Connexion",
        "icon": "https://img1.hotstar.com/image/upload/f_auto,t_web_vl_1x/.jpg",
        "lice": "abc",
        "link": "4137"
    },
    {
        "direct": false,
        "drm": false,
        "name": "Puttinti Pattucheera",
        "icon": "https://img1.hotstar.com/image/upload/f_auto,t_web_vl_1x/.jpg",
        "lice": "abc",
        "link": "4106"
    },
    {
        "direct": false,
        "drm": false,
        "name": "Thali Kattu Subhavela",
        "icon": "https://img1.hotstar.com/image/upload/f_auto,t_web_vl_1x/.jpg",
        "lice": "abc",
        "link": "7689"
    },
    {
        "direct": false,
        "drm": false,
        "name": "Sell Me The Answer",
        "icon": "https://img1.hotstar.com/image/upload/f_auto,t_web_vl_1x/.jpg",
        "lice": "abc",
        "link": "9927"
    },
    {
        "direct": false,
        "drm": false,
        "name": "Neeli Kaluvalu",
        "icon": "https://img1.hotstar.com/image/upload/f_auto,t_web_vl_1x/.jpg",
        "lice": "abc",
        "link": "16260"
    },
    {
        "direct": false,
        "drm": false,
        "name": "Baahubali 2 Movie Special",
        "icon": "https://img1.hotstar.com/image/upload/f_auto,t_web_vl_1x/.jpg",
        "lice": "abc",
        "link": "11199"
    },
    {
        "direct": false,
        "drm": false,
        "name": "Maha Kumbh",
        "icon": "https://img1.hotstar.com/image/upload/f_auto,t_web_vl_1x/.jpg",
        "lice": "abc",
        "link": "14270"
    },
    {
        "direct": false,
        "drm": false,
        "name": "Nuvva Nena",
        "icon": "https://img1.hotstar.com/image/upload/f_auto,t_web_vl_1x/.jpg",
        "lice": "abc",
        "link": "14838"
    },
    {
        "direct": false,
        "drm": false,
        "name": "Paruvu Prathistha",
        "icon": "https://img1.hotstar.com/image/upload/f_auto,t_web_vl_1x/.jpg",
        "lice": "abc",
        "link": "15273"
    },
    {
        "direct": false,
        "drm": false,
        "name": "Telugu Laughter Challenge",
        "icon": "https://img1.hotstar.com/image/upload/f_auto,t_web_vl_1x/sources/r1/cms/prod/5723/45723-v.jpg",
        "lice": "abc",
        "link": "1260000759"
    },
    {
        "direct": false,
        "drm": false,
        "name": "Maa Inti Mahalakshmi",
        "icon": "https://img1.hotstar.com/image/upload/f_auto,t_web_vl_1x/.jpg",
        "lice": "abc",
        "link": "11177"
    },
    {
        "direct": false,
        "drm": false,
        "name": "Kodalu Diddina Kapuram",
        "icon": "https://img1.hotstar.com/image/upload/f_auto,t_web_vl_1x/.jpg",
        "lice": "abc",
        "link": "11166"
    },
    {
        "direct": false,
        "drm": false,
        "name": "Ugadi Rangasthalam",
        "icon": "https://img1.hotstar.com/image/upload/f_auto,t_web_vl_1x/.jpg",
        "lice": "abc",
        "link": "16917"
    },
    {
        "direct": false,
        "drm": false,
        "name": "Mega Day",
        "icon": "https://img1.hotstar.com/image/upload/f_auto,t_web_vl_1x/.jpg",
        "lice": "abc",
        "link": "5295"
    },
    {
        "direct": false,
        "drm": false,
        "name": "Star Sankranthi",
        "icon": "https://img1.hotstar.com/image/upload/f_auto,t_web_vl_1x/sources/r1/cms/prod/8130/228130-v.jpg",
        "lice": "abc",
        "link": "1260003220"
    },
    {
        "direct": false,
        "drm": false,
        "name": "Sardaar Gabbar Singh Special",
        "icon": "https://img1.hotstar.com/image/upload/f_auto,t_web_vl_1x/.jpg",
        "lice": "abc",
        "link": "8053"
    },
    {
        "direct": false,
        "drm": false,
        "name": "24 - Time Starts Now",
        "icon": "https://img1.hotstar.com/image/upload/f_auto,t_web_vl_1x/.jpg",
        "lice": "abc",
        "link": "8907"
    },
    {
        "direct": false,
        "drm": false,
        "name": "Andamaina Jeevitam",
        "icon": "https://img1.hotstar.com/image/upload/f_auto,t_web_vl_1x/.jpg",
        "lice": "abc",
        "link": "5438"
    },
    {
        "direct": false,
        "drm": false,
        "name": "Jayam",
        "icon": "https://img1.hotstar.com/image/upload/f_auto,t_web_vl_1x/.jpg",
        "lice": "abc",
        "link": "18656"
    },
    {
        "direct": false,
        "drm": false,
        "name": "Bad Boss",
        "icon": "https://img1.hotstar.com/image/upload/f_auto,t_web_vl_1x/sources/r1/cms/prod/4456/174456-v.jpg",
        "lice": "abc",
        "link": "1260002706"
    },
    {
        "direct": false,
        "drm": false,
        "name": "Sitakokachilaka",
        "icon": "https://img1.hotstar.com/image/upload/f_auto,t_web_vl_1x/.jpg",
        "lice": "abc",
        "link": "4110"
    },
    {
        "direct": false,
        "drm": false,
        "name": "Cricket Countdown - VIVO IPL 2019 Telugu",
        "icon": "https://img1.hotstar.com/image/upload/f_auto,t_web_vl_1x/sources/r1/cms/prod/8970/338970-v.jpg",
        "lice": "abc",
        "link": "1260004044"
    },
    {
        "direct": false,
        "drm": false,
        "name": "Maa Oori Vanta",
        "icon": "https://img1.hotstar.com/image/upload/f_auto,t_web_vl_1x/.jpg",
        "lice": "abc",
        "link": "7220"
    },
    {
        "direct": false,
        "drm": false,
        "name": "Kundanapu Bomma",
        "icon": "https://img1.hotstar.com/image/upload/f_auto,t_web_vl_1x/.jpg",
        "lice": "abc",
        "link": "11175"
    },
    {
        "direct": false,
        "drm": false,
        "name": "Vihari",
        "icon": "https://img1.hotstar.com/image/upload/f_auto,t_web_vl_1x/.jpg",
        "lice": "abc",
        "link": "9693"
    },
    {
        "direct": false,
        "drm": false,
        "name": "Weekly Review With GachiBowli Diwakar",
        "icon": "https://img1.hotstar.com/image/upload/f_auto,t_web_vl_1x/sources/r1/cms/prod/8818/338818-v.jpg",
        "lice": "abc",
        "link": "1260004038"
    },
    {
        "direct": false,
        "drm": false,
        "name": "Khaidi No. 150 Specials",
        "icon": "https://img1.hotstar.com/image/upload/f_auto,t_web_vl_1x/.jpg",
        "lice": "abc",
        "link": "12725"
    },
    {
        "direct": false,
        "drm": false,
        "name": "VVS 281 and Beyond",
        "icon": "https://img1.hotstar.com/image/upload/f_auto,t_web_vl_1x/sources/r1/cms/prod/5320/225320-v.jpg",
        "lice": "abc",
        "link": "1260003155"
    },
    {
        "direct": false,
        "drm": false,
        "name": "Changanti Gaari",
        "icon": "https://img1.hotstar.com/image/upload/f_auto,t_web_vl_1x/.jpg",
        "lice": "abc",
        "link": "9648"
    },
    {
        "direct": false,
        "drm": false,
        "name": "Just Cooking",
        "icon": "https://img1.hotstar.com/image/upload/f_auto,t_web_vl_1x/.jpg",
        "lice": "abc",
        "link": "15277"
    },
    {
        "direct": false,
        "drm": false,
        "name": "PKL Journey Telugu",
        "icon": "https://img1.hotstar.com/image/upload/f_auto,t_web_vl_1x/sources/r1/cms/prod/1326/221326-v.jpg",
        "lice": "abc",
        "link": "1260003160"
    },
    {
        "direct": false,
        "drm": false,
        "name": "Pandem Kollu",
        "icon": "https://img1.hotstar.com/image/upload/f_auto,t_web_vl_1x/.jpg",
        "lice": "abc",
        "link": "7159"
    },
    {
        "direct": false,
        "drm": false,
        "name": "Kutumba Gauravam",
        "icon": "https://img1.hotstar.com/image/upload/f_auto,t_web_vl_1x/.jpg",
        "lice": "abc",
        "link": "13577"
    },
    {
        "direct": false,
        "drm": false,
        "name": "Kyamedy Varthalu",
        "icon": "https://img1.hotstar.com/image/upload/f_auto,t_web_vl_1x/.jpg",
        "lice": "abc",
        "link": "9646"
    },
    {
        "direct": false,
        "drm": false,
        "name": "Nannaku Prematho",
        "icon": "https://img1.hotstar.com/image/upload/f_auto,t_web_vl_1x/.jpg",
        "lice": "abc",
        "link": "13672"
    },
    {
        "direct": false,
        "drm": false,
        "name": "Dussehra Vachindayya",
        "icon": "https://img1.hotstar.com/image/upload/f_auto,t_web_vl_1x/.jpg",
        "lice": "abc",
        "link": "15315"
    },
    {
        "direct": false,
        "drm": false,
        "name": "Kyamedy Highlights",
        "icon": "https://img1.hotstar.com/image/upload/f_auto,t_web_vl_1x/.jpg",
        "lice": "abc",
        "link": "9983"
    },
    {
        "direct": false,
        "drm": false,
        "name": "Durga",
        "icon": "https://img1.hotstar.com/image/upload/f_auto,t_web_vl_1x/.jpg",
        "lice": "abc",
        "link": "13005"
    },
    {
        "direct": false,
        "drm": false,
        "name": "Maa Talkies",
        "icon": "https://img1.hotstar.com/image/upload/f_auto,t_web_vl_1x/.jpg",
        "lice": "abc",
        "link": "5515"
    },
    {
        "direct": false,
        "drm": false,
        "name": "Titans Rewind Telugu",
        "icon": "https://img1.hotstar.com/image/upload/f_auto,t_web_vl_1x/sources/r1/cms/prod/1442/221442-v.jpg",
        "lice": "abc",
        "link": "1260003159"
    },
    {
        "direct": false,
        "drm": false,
        "name": "Gautamiputra Satakarni Specials",
        "icon": "https://img1.hotstar.com/image/upload/f_auto,t_web_vl_1x/.jpg",
        "lice": "abc",
        "link": "12723"
    },
    {
        "direct": false,
        "drm": false,
        "name": "Desamudurlu",
        "icon": "https://img1.hotstar.com/image/upload/f_auto,t_web_vl_1x/.jpg",
        "lice": "abc",
        "link": "13101"
    },
    {
        "direct": false,
        "drm": false,
        "name": "PKL 6 Thrill Wins",
        "icon": "https://img1.hotstar.com/image/upload/f_auto,t_web_vl_1x/sources/r1/cms/prod/1384/221384-v.jpg",
        "lice": "abc",
        "link": "1260003163"
    },
    {
        "direct": false,
        "drm": false,
        "name": "Maa Oori Monagallu",
        "icon": "https://img1.hotstar.com/image/upload/f_auto,t_web_vl_1x/.jpg",
        "lice": "abc",
        "link": "13776"
    },
    {
        "direct": false,
        "drm": false,
        "name": "Khel Jigel",
        "icon": "https://img1.hotstar.com/image/upload/f_auto,t_web_vl_1x/sources/r1/cms/prod/5216/225216-v.jpg",
        "lice": "abc",
        "link": "1260003153"
    },
    {
        "direct": false,
        "drm": false,
        "name": "Khushi",
        "icon": "https://img1.hotstar.com/image/upload/f_auto,t_web_vl_1x/.jpg",
        "lice": "abc",
        "link": "14241"
    },
    {
        "direct": false,
        "drm": false,
        "name": "Ugadi Panchanga Sravanam",
        "icon": "https://img1.hotstar.com/image/upload/f_auto,t_web_vl_1x/.jpg",
        "lice": "abc",
        "link": "13580"
    },
    {
        "direct": false,
        "drm": false,
        "name": "Suffering From Prema",
        "icon": "https://img1.hotstar.com/image/upload/f_auto,t_web_vl_1x/.jpg",
        "lice": "abc",
        "link": "14358"
    },
    {
        "direct": false,
        "drm": false,
        "name": "Adavari Matalaku",
        "icon": "https://img1.hotstar.com/image/upload/f_auto,t_web_vl_1x/.jpg",
        "lice": "abc",
        "link": "13688"
    },
    {
        "direct": false,
        "drm": false,
        "name": "Game Plan - VIVO IPL 2019 Telugu",
        "icon": "https://img1.hotstar.com/image/upload/f_auto,t_web_vl_1x/sources/r1/cms/prod/8801/338801-v.jpg",
        "lice": "abc",
        "link": "1260004042"
    },
    {
        "direct": false,
        "drm": false,
        "name": "Uthappam",
        "icon": "https://img1.hotstar.com/image/upload/f_auto,t_web_vl_1x/.jpg",
        "lice": "abc",
        "link": "9642"
    },
    {
        "direct": false,
        "drm": false,
        "name": "Kevvu Keka",
        "icon": "https://img1.hotstar.com/image/upload/f_auto,t_web_vl_1x/.jpg",
        "lice": "abc",
        "link": "13094"
    },
    {
        "direct": false,
        "drm": false,
        "name": "C Square (Cricket+Cinema)",
        "icon": "https://img1.hotstar.com/image/upload/f_auto,t_web_vl_1x/sources/r1/cms/prod/8978/338978-v.jpg",
        "lice": "abc",
        "link": "1260004036"
    },
    {
        "direct": false,
        "drm": false,
        "name": "PKL Kotishwardu",
        "icon": "https://img1.hotstar.com/image/upload/f_auto,t_web_vl_1x/sources/r1/cms/prod/6057/226057-v.jpg",
        "lice": "abc",
        "link": "1260003150"
    },
    {
        "direct": false,
        "drm": false,
        "name": "Titans Week",
        "icon": "https://img1.hotstar.com/image/upload/f_auto,t_web_vl_1x/sources/r1/cms/prod/1419/221419-v.jpg",
        "lice": "abc",
        "link": "1260003157"
    },
    {
        "direct": false,
        "drm": false,
        "name": "Maha Shivotsavam",
        "icon": "https://img1.hotstar.com/image/upload/f_auto,t_web_vl_1x/.jpg",
        "lice": "abc",
        "link": "16693"
    },
    {
        "direct": false,
        "drm": false,
        "name": "Shakthi",
        "icon": "https://img1.hotstar.com/image/upload/f_auto,t_web_vl_1x/.jpg",
        "lice": "abc",
        "link": "9653"
    },
    {
        "direct": false,
        "drm": false,
        "name": "Uthappam Rewind",
        "icon": "https://img1.hotstar.com/image/upload/f_auto,t_web_vl_1x/.jpg",
        "lice": "abc",
        "link": "9985"
    },
    {
        "direct": false,
        "drm": false,
        "name": "Suprabhatham",
        "icon": "https://img1.hotstar.com/image/upload/f_auto,t_web_vl_1x/.jpg",
        "lice": "abc",
        "link": "9638"
    },
    {
        "direct": false,
        "drm": false,
        "name": "VIVA",
        "icon": "https://img1.hotstar.com/image/upload/f_auto,t_web_vl_1x/sources/r1/cms/prod/9957/249957-v.jpg",
        "lice": "abc",
        "link": "1260003351"
    }
]
}
]